{
    "name": "react-hooks-template",
    "reason": {
        "react-jsx": 3
    },
    "sources": {
        "dir": "src",
        "subdirs": true
    },
    "package-specs": [
        {
            "module": "commonjs",
            "in-source": true
        }
    ],
    "suffix": ".bs.js",
    "namespace": false,
    "bs-dependencies": [
        "reason-react",
        "bs-axios",
        "@glennsl/bs-json",
        "bs-css",
        "bs-react-is-visible"
    ],
    "refmt": 3
}

